…
``` r
district_grad_rates <- get_data("EDFacts_acgr_lea_2011_2019")
#> Rows: 11326 Columns: 29
#> ── Column specification ────────────────────────────────────────────────────────
#> Delimiter: ","
#> chr  (17): ALL_RATE, CWD_RATE, DATE_CUR, ECD_RATE, FIPST, FILEURL, LEAID, LE...
#> dbl  (11): ALL_COHORT, CWD_COHORT, ECD_COHORT, LEP_COHORT, MAM_COHORT, MAS_C...
#> dttm  (1): DL_INGESTION_DATETIME
#> 
#> ℹ Use `spec()` to retrieve the full column specification for this data.
#> ℹ Specify the column types or set `show_col_types = FALSE` to quiet this message.
district_grad_rates
#> # A tibble: 11,326 × 29
#>    ALL_COHORT ALL_RATE CWD_COHORT CWD_RATE DATE_CUR ECD_COHORT ECD_RATE FIPST
#>         <dbl> <chr>         <dbl> <chr>    <chr>         <dbl> <chr>    <chr>
#>  1        252 80                3 PS       03OCT15         121 65-69    01   
#>  2        398 75               47 70-79    03OCT15         233 65-69    01   
#>  3       1020 89               51 40-49    03OCT15         175 75-79    01   
#>  4        750 91               35 60-69    03OCT15         102 80-84    01   
#>  5        128 55-59            15 LT50     03OCT15          68 40-44    01   
#>  6        166 90-94             9 GE50     03OCT15          53 70-79    01   
#>  7        336 90               30 60-79    03OCT15          35 60-69    01   
#>  8        273 77               11 LT50     03OCT15          93 70-74    01   
#>  9        134 70-74             4 PS       03OCT15          60 50-59    01   
#> 10        266 58               33 50-59    03OCT15         195 55-59    01   
#> # … with 11,316 more rows, and 21 more variables: FILEURL <chr>, LEAID <chr>,
#> #   LEANM <chr>, LEP_COHORT <dbl>, LEP_RATE <chr>, MAM_COHORT <dbl>,
#> #   MAM_RATE <chr>, MAS_COHORT <dbl>, MAS_RATE <chr>, MBL_COHORT <dbl>,
#> #   MBL_RATE <chr>, MHI_COHORT <dbl>, MHI_RATE <chr>, MTR_COHORT <dbl>,
#> #   MTR_RATE <chr>, MWH_COHORT <dbl>, MWH_RATE <chr>, STNAM <chr>, YEAR <dbl>,
#> #   PIPELINE <chr>, DL_INGESTION_DATETIME <dttm>
```
…
